<?xml version="1.0" encoding="utf-8"?>
<!-- Generator: Adobe Illustrator 16.0.0, SVG Export Plug-In . SVG Version: 6.00 Build 0)  -->
<!DOCTYPE svg PUBLIC "-//W3C//DTD SVG 1.1//EN" "http://www.w3.org/Graphics/SVG/1.1/DTD/svg11.dtd">
<svg version="1.1" id="Layer_1" xmlns="http://www.w3.org/2000/svg" xmlns:xlink="http://www.w3.org/1999/xlink" x="0px" y="0px"
	 width="340px" height="51px" viewBox="0 0 340 51" enable-background="new 0 0 340 51" xml:space="preserve">
<g>
	<g>
		<path fill="#FFFFFF" d="M250.399,37.705c0-1.705,1.211-2.987,2.911-2.987c1.697,0,2.863,1.236,2.863,2.987
			c0,1.708-1.166,2.987-2.962,2.987C251.563,40.692,250.399,39.413,250.399,37.705z"/>
		<path fill="#FFFFFF" d="M284.421,39.175c-1.504,0.763-4.661,1.518-8.639,1.518c-9.223,0-16.116-5.69-16.116-16.219
			c0-10.056,6.944-16.791,17.087-16.791c4.026,0,6.647,0.853,7.766,1.422l-1.07,3.366c-1.552-0.756-3.833-1.328-6.551-1.328
			c-7.668,0-12.766,4.792-12.766,13.187c0,7.871,4.611,12.854,12.522,12.854c2.621,0,5.242-0.519,6.939-1.327L284.421,39.175z"/>
		<path fill="#FFFFFF" d="M295.244,30.117l-3.398,10.055h-4.366l11.16-31.969h5.05l11.161,31.969h-4.514l-3.493-10.055H295.244z
			 M306.018,26.893l-3.25-9.202c-0.729-2.088-1.216-3.984-1.699-5.836h-0.099c-0.486,1.852-0.97,3.842-1.649,5.788l-3.202,9.25
			H306.018z"/>
		<path fill="#FFFFFF" d="M322.133,11.715h-9.95V8.203h24.22v3.512h-9.997v28.457h-4.272V11.715z"/>
	</g>
	<polygon fill-rule="evenodd" clip-rule="evenodd" fill="#FFFFFF" points="24.797,15.793 24.797,8.857 3.598,8.857 3.598,40.361 
		24.797,40.361 24.797,33.434 13.277,33.434 13.277,27.998 24.202,27.998 24.202,21.063 13.277,21.063 13.277,15.793 	"/>
	<polygon fill-rule="evenodd" clip-rule="evenodd" fill="#FFFFFF" points="45.736,8.857 36.051,8.857 36.051,40.361 57.351,40.361 
		57.351,33.434 45.736,33.434 	"/>
	<polygon fill-rule="evenodd" clip-rule="evenodd" fill="#FFFFFF" points="119.245,40.264 128.928,40.264 128.928,20.641 
		129.03,20.641 146.78,40.264 156.461,40.264 156.461,8.229 146.78,8.229 146.78,27.821 146.682,27.821 128.928,8.229 
		119.245,8.229 	"/>
	<path fill-rule="evenodd" clip-rule="evenodd" fill="#FFFFFF" d="M185.463,7.172c-3.631,0.023-7.002,0.728-10.108,2.12
		c-3.114,1.388-5.628,3.316-7.544,5.783c-1.915,2.467-2.9,5.324-2.957,8.576c0.029,3.487,0.926,6.551,2.686,9.192
		c1.754,2.648,4.176,4.714,7.264,6.204c3.084,1.497,6.639,2.252,10.66,2.279c4.021-0.027,7.573-0.782,10.666-2.279
		c3.083-1.49,5.504-3.556,7.26-6.204c1.754-2.642,2.652-5.705,2.686-9.192c-0.057-3.252-1.044-6.109-2.96-8.576
		c-1.921-2.467-4.43-4.396-7.539-5.783C192.464,7.9,189.094,7.196,185.463,7.172z M185.463,15.241c1.951,0.023,3.72,0.427,5.3,1.21
		c1.583,0.783,2.845,1.814,3.784,3.087c0.944,1.276,1.424,2.666,1.446,4.159c-0.074,2.818-1.107,5.104-3.095,6.853
		c-1.986,1.752-4.466,2.659-7.436,2.714c-2.968-0.055-5.45-0.962-7.44-2.714c-1.982-1.748-3.015-4.034-3.088-6.853
		c0.02-1.494,0.501-2.883,1.44-4.159c0.939-1.272,2.207-2.304,3.785-3.087C181.748,15.667,183.512,15.264,185.463,15.241z"/>
	<path fill-rule="evenodd" clip-rule="evenodd" fill="#FFFFFF" d="M237.233,8.229V25.1c0.035,1.421-0.072,2.789-0.319,4.114
		c-0.244,1.319-0.841,2.405-1.778,3.268c-0.946,0.855-2.436,1.302-4.479,1.328c-2.041-0.026-3.531-0.473-4.473-1.328
		c-0.943-0.862-1.537-1.948-1.779-3.268c-0.25-1.325-0.354-2.692-0.323-4.114V8.229h-9.688V26.25
		c-0.066,2.078,0.118,4.092,0.565,6.036c0.44,1.938,1.558,3.695,3.338,5.264c1.604,1.303,3.513,2.228,5.717,2.773
		c2.203,0.547,4.42,0.812,6.643,0.792c2.224,0.02,4.439-0.245,6.643-0.792c2.206-0.546,4.107-1.471,5.717-2.773
		c1.785-1.568,2.895-3.325,3.341-5.264c0.442-1.944,0.631-3.958,0.559-6.036V8.229H237.233z"/>
	<g>
		<path fill-rule="evenodd" clip-rule="evenodd" fill="#FFFFFF" d="M87.992,13.728c-1.744,0.037-3.162,0.55-4.272,1.532
			c-1.103,0.985-1.674,2.225-1.713,3.722c0.039,1.501,0.61,2.741,1.713,3.726c1.11,0.983,2.528,1.494,4.272,1.53
			c1.749-0.037,3.211-0.547,4.372-1.53c1.164-0.985,1.77-2.225,1.813-3.726c-0.044-1.497-0.649-2.737-1.813-3.722
			C91.203,14.278,89.741,13.765,87.992,13.728z"/>
		<path fill-rule="evenodd" clip-rule="evenodd" fill="#FFFFFF" d="M67.54,0.5v50h39.735v-50H67.54z M101.777,25.445
			c-1.141,2.16-2.541,4.151-4.195,5.986l-7.958,8.931H78.599l10.633-10.754l-0.098-0.082c-0.83,0.319-1.671,0.558-2.512,0.725
			c-0.845,0.169-1.753,0.252-2.735,0.252c-2.447-0.034-4.565-0.571-6.349-1.615c-1.785-1.044-3.16-2.414-4.132-4.113
			c-0.975-1.698-1.465-3.545-1.476-5.536c0.038-2.614,0.796-4.819,2.263-6.609c1.466-1.793,3.409-3.145,5.818-4.073
			c2.415-0.918,5.059-1.382,7.935-1.384c1.841-0.011,3.704,0.204,5.592,0.63c1.887,0.427,3.563,1.135,5.033,2.121
			c1.526,1.061,2.735,2.373,3.623,3.928c0.893,1.547,1.347,3.176,1.367,4.878C103.517,21.051,102.919,23.293,101.777,25.445z"/>
	</g>
</g>
</svg>
