<?xml version="1.0" encoding="utf-8"?>
<!-- Generator: Adobe Illustrator 16.0.0, SVG Export Plug-In . SVG Version: 6.00 Build 0)  -->
<!DOCTYPE svg PUBLIC "-//W3C//DTD SVG 1.1//EN" "http://www.w3.org/Graphics/SVG/1.1/DTD/svg11.dtd">
<svg version="1.1" id="Layer_1" xmlns="http://www.w3.org/2000/svg" xmlns:xlink="http://www.w3.org/1999/xlink" x="0px" y="0px"
	 width="352.667px" height="55.333px" viewBox="0 0 352.667 55.333" enable-background="new 0 0 352.667 55.333"
	 xml:space="preserve">
<path fill="#FFFFFF" d="M352.667,13.934v-0.601h-17.76v0.601c2.22,0.3,3.24,0.72,4.26,1.619c0.78,0.721,1.439,1.62,1.92,2.641
	c1.381,2.88,1.92,5.819,1.92,10.56v9l-21.42-24.42h-19.56v0.601c2.399,0.06,3.42,0.3,5.159,1.199c1.08,0.601,1.98,1.261,2.58,2.04
	c1.32,1.681,1.621,2.94,1.621,7.261l-0.061,10.859c-0.061,6.66-0.54,10.021-1.98,12.601c-1.26,2.34-3.24,3.96-5.699,4.56
	c-0.48,0.06-1.021,0.18-1.62,0.3v0.601h19.02v-0.601c-2.46-0.24-3.54-0.6-4.68-1.56c-0.78-0.601-1.44-1.38-1.979-2.28
	c-1.621-2.64-2.281-6.36-2.281-12.54v-17.16l31.681,36.12v-24c0-6,0.601-9.6,2.16-12.72c0.6-1.2,1.26-2.22,2.04-2.94
	C349.126,14.593,350.207,14.234,352.667,13.934 M298.426,53.354v-0.601c-2.699-0.18-3.72-0.6-4.5-1.68
	c-0.72-1.021-1.08-2.22-1.08-4.561v-3.42V23.654c0-4.021,0-4.92,0.301-6.24c0.119-0.66,0.359-1.32,0.779-1.8
	c0.84-1.08,1.801-1.44,4.5-1.68v-0.601h-22.979v0.601c2.7,0.239,3.72,0.6,4.5,1.68c0.72,1.02,1.08,2.22,1.08,4.62v3.42v19.439
	c0,4.021-0.06,4.86-0.3,6.181c-0.121,0.72-0.42,1.319-0.78,1.8c-0.841,1.14-1.86,1.5-4.5,1.68v0.601H298.426z M297.707,3.973
	c0-1.92-1.5-3.42-3.479-3.42c-1.381,0-2.94,0.96-4.32,2.7l-1.08,1.32c-0.42,0.54-1.26,1.38-2.1,2.1l-3.061,2.7l0.48,0.72l3.18-1.14
	c0.72-0.24,1.98-0.54,3.061-0.72c0.18,0,0.779-0.061,1.68-0.181C296.147,7.513,297.707,6.374,297.707,3.973 M272.508,13.333h-32.521
	l-3.841,16.26h0.601c1.56-3.3,2.34-4.439,5.101-7.199c1.979-1.98,4.08-3.601,6.359-5.04c3.721-2.341,5.641-3,10.26-3.301
	l-24.359,39.301h34.199l3.36-17.94h-0.6c-1.8,4.08-2.761,5.58-6.24,9.18c-1.979,2.101-4.14,3.841-6.42,5.28
	c-3.479,2.1-5.58,2.7-10.32,2.76L272.508,13.333z M211.848,37.333h-11.699l5.578-14.88L211.848,37.333z M235.848,53.354v-0.601
	c-3.36-0.18-5.041-1.5-7.021-5.58c-1.5-3-3.78-8.1-4.86-10.68l-7.74-18.66c-0.899-2.22-1.859-4.38-2.64-6.66l-0.479-1.439
	c-1.801,2.16-2.641,3.06-4.44,4.68c-2.64,2.46-3.36,2.94-5.76,4.2c1.08,1.08,1.62,1.74,2.34,3.12l-6.06,16.02
	c-2.039,5.46-4.381,9.181-7.5,12.061c-2.1,1.979-3.12,2.46-5.82,2.939v0.601h18.54v-0.601c-3.72-0.24-5.94-3-5.94-7.439
	c0-2.28,0.42-4.32,1.5-7.261h12.12l1.32,3.061c1.68,3.899,2.46,6.72,2.46,8.28c0,2.159-1.38,3.239-4.26,3.359v0.601H235.848z
	 M186.83,34.934v-0.601h-20.7v0.601c3.84,0.539,4.86,1.8,4.86,6.06v4.26c0,6-1.38,8.101-5.28,8.101c-6.06,0-8.82-5.58-8.82-17.641
	c0-13.68,3.84-22.38,9.96-22.38c5.28,0,10.02,5.7,12.72,15.3h0.6l-0.66-15.6h-0.6c-0.18,0.78-0.54,1.02-1.32,1.02
	c-0.48,0-1.32-0.06-2.16-0.239l-1.56-0.36c-2.64-0.6-5.64-0.9-7.74-0.9c-12.24,0-21.84,9.24-21.84,21
	c0,11.16,9.36,20.58,20.52,20.58c3.66,0,7.98-0.72,12.12-2.04c0.66-0.18,1.14-0.359,1.44-0.42c0.48-0.12,0.96-0.239,1.38-0.239
	c1.02,0,1.62,0.539,2.04,1.92h0.6V42.673c0-3.66,0.12-4.439,0.72-5.76c0.3-0.479,0.66-0.96,1.14-1.26
	C184.91,35.173,185.45,34.994,186.83,34.934 M123.479,37.333h-11.7l5.58-14.88L123.479,37.333z M147.479,53.354v-0.601
	c-3.36-0.18-5.04-1.5-7.02-5.58c-1.5-3-3.78-8.1-4.86-10.68l-7.74-18.66c-0.9-2.22-1.86-4.38-2.64-6.66l-0.48-1.439
	c-1.8,2.16-2.64,3.06-4.44,4.68c-2.64,2.46-3.36,2.94-5.76,4.2c1.08,1.08,1.62,1.74,2.34,3.12l-6.06,16.02
	c-2.04,5.46-4.38,9.181-7.5,12.061c-2.1,1.979-3.12,2.46-5.82,2.939v0.601h18.54v-0.601c-3.72-0.24-5.94-3-5.94-7.439
	c0-2.28,0.42-4.32,1.5-7.261h12.12l1.32,3.061c1.68,3.899,2.46,6.72,2.46,8.28c0,2.159-1.38,3.239-4.26,3.359v0.601H147.479z
	 M96.54,53.354v-0.601c-2.7-0.18-3.72-0.6-4.5-1.68c-0.96-1.32-1.08-2.34-1.08-7.98V23.654c0-3.9,0.06-4.92,0.3-6.24
	c0.12-0.66,0.36-1.32,0.78-1.8c0.84-1.08,1.8-1.44,4.5-1.68v-0.601H79.02L69,38.593l-9.9-25.26H38.76v0.601
	c3.78,0.239,5.76,0.96,6.84,2.52c0.9,1.26,1.08,2.22,1.08,6.18v12.66c0,6.601-0.54,9.96-1.98,12.601c-1.26,2.34-3.24,3.899-5.7,4.5
	c-0.48,0.119-1.02,0.239-1.62,0.359v0.601h19.02v-0.601c-2.46-0.3-3.54-0.66-4.74-1.56c-0.78-0.601-1.44-1.38-1.98-2.28
	c-1.56-2.76-2.22-6.479-2.22-12.54v-20.46l15.84,39.42l15.84-40.32v28.08c0,4.021-0.06,4.86-0.3,6.181
	c-0.12,0.72-0.42,1.319-0.78,1.8c-0.84,1.14-1.8,1.5-4.5,1.68v0.601H96.54z M22.801,26.713c0,8.221-1.98,12.36-5.82,12.36
	c-4.02,0-5.88-4.14-5.88-12.96c0-8.46,1.98-12.78,5.94-12.78C20.881,13.333,22.801,17.894,22.801,26.713 M34.141,29.414
	c0-9.72-7.2-16.86-17.04-16.86c-9.06,0-16.44,6.721-16.44,15c0,7.2,6.12,12.54,14.28,12.54c2.34,0,4.44-0.54,5.76-1.439
	c0.36-0.24,0.78-0.601,1.32-1.021c-0.72,2.761-1.02,3.78-1.68,5.4c-0.6,1.38-1.26,2.64-2.04,3.84c-1.62,2.4-3.84,4.62-6.54,6.54
	c-0.3,0.18-0.72,0.48-1.26,0.84l0.3,0.48c3.42-1.021,4.74-1.561,7.74-3.24c2.04-1.14,3.9-2.4,5.7-3.78
	C30.841,42.553,34.141,36.434,34.141,29.414"/>
</svg>
